List of Sizes available
"7.5,8,8.5,9,9.5,10,10.5,11,11.5,12,13,14,15[out of stock]"
"10 (NO LID TO BOX)[out of stock],10.5 (NO LID TO BOX)[out of stock],11 (NO LID TO BOX)[out of stock],11.5 (NO LID TO BOX),12 (NO LID TO BOX)[out of stock]"
"6.5,7,7.5,8,8.5,9,9.5[out of stock],10,10.5,11,11.5,12,Racer Blue/Black"
"S,M[out of stock],L[out of stock],XL,2XL"
"5[out of stock],6,7,8,9[out of stock],5.5,6.5,7.5,8.5,Gym Red / Ivory-Gym Red-Sail"
"7.5,8[out of stock],8.5[out of stock],9,9.5,10,10.5,11,11.5,12"
"8[out of stock],10[out of stock],11[out of stock],11.5,14"
"XS,S,M,L,XL[out of stock]"
"S,M[out of stock],XL[out of stock],2XL[out of stock]"
"US 7,US 7.5[out of stock],US 8,US 8.5,US 9"
"10,10.5,9[out of stock],9.5,11,11.5"
"XS,S[out of stock],M[out of stock],L"
"9,9.5,10.5[out of stock],11,12.5[out of stock],8.5"
"M[out of stock],XS,L,XL"
"US 6[out of stock],US 7[out of stock],US 8,US 8.5,US 9"
"001 - (BLACK/WHITE),7.5,8[out of stock],10"
"M[out of stock],L,XL,2XL[out of stock],L-Tall[out of stock]"
"M[out of stock],L,XL,2XL[out of stock],L-Tall[out of stock]"
"S,L[out of stock],XL[out of stock],2XL[out of stock]"
"S,L[out of stock],XL[out of stock],2XL[out of stock]"
"10 D - Medium,10.5 D - Medium,11 D - Medium,11.5 D - Medium,12 D - Medium,12.5 D - Medium,13 D - Medium,14 D - Medium,15 D - Medium,7 D - Medium[out of stock],7.5 D - Medium[out of stock],8 D - Medium[out of stock],8.5 D - Medium[out of stock],9 D - Medium,9.5 D - Medium"
"10 D - Medium,10.5 D - Medium,11 D - Medium,11.5 D - Medium,12 D - Medium,12.5 D - Medium,13 D - Medium,14 D - Medium,15 D - Medium,7 D - Medium[out of stock],7.5 D - Medium[out of stock],8 D - Medium[out of stock],8.5 D - Medium[out of stock],9 D - Medium,9.5 D - Medium"
"7,7.5,8,8.5,9,9.5,10[out of stock]"
"7,7.5,8,8.5,9,9.5,10[out of stock]"
"6.5[out of stock],7[out of stock],7.5,8[out of stock],8.5,9,9.5,10[out of stock],10.5,11[out of stock],11.5,12[out of stock],12.5[out of stock],13,14[out of stock]"
"6.5[out of stock],7[out of stock],7.5,8[out of stock],8.5,9,9.5,10[out of stock],10.5,11[out of stock],11.5,12[out of stock],12.5[out of stock],13,14[out of stock]"
"10[out of stock],11.5"
"10[out of stock],11.5"
"7,7.5,8.5,9[out of stock],9.5[out of stock],10[out of stock],10.5,11.5,12"
"7,7.5,8.5,9[out of stock],9.5[out of stock],10[out of stock],10.5,11.5,12"
"5[out of stock],6[out of stock],8[out of stock],10.5"
"5[out of stock],6[out of stock],8[out of stock],10.5"
"S[out of stock],M[out of stock],L[out of stock],XL,2XL[out of stock],3XL[out of stock],4XL[out of stock]"
"S[out of stock],M[out of stock],L[out of stock],XL,2XL[out of stock],3XL[out of stock],4XL[out of stock]"
"XL,2XL[out of stock]"
"XL,2XL[out of stock]"
"7.5,8,8.5[out of stock],9,9.5,10,10.5,11,11.5[out of stock],12[out of stock],13[out of stock]"
"7.5,8,8.5[out of stock],9,9.5,10,10.5,11,11.5[out of stock],12[out of stock],13[out of stock]"
"6[out of stock],6.5,7,7.5,8,8.5[out of stock],9[out of stock],9.5,10,11[out of stock]"
"6[out of stock],6.5,7,7.5,8,8.5[out of stock],9[out of stock],9.5,10,11[out of stock]"
"15[out of stock],14[out of stock],12,9.5,10,10.5,11,11.5,13[out of stock],8[out of stock],8.5[out of stock],9,1Y,1.5Y,2Y,2.5Y,3Y[out of stock],3.5Y,4Y,4.5Y[out of stock],5Y,5.5Y[out of stock],6Y,6.5Y[out of stock],7Y[out of stock]"
"15[out of stock],14[out of stock],12,9.5,10,10.5,11,11.5,13[out of stock],8[out of stock],8.5[out of stock],9,1Y,1.5Y,2Y,2.5Y,3Y[out of stock],3.5Y,4Y,4.5Y[out of stock],5Y,5.5Y[out of stock],6Y,6.5Y[out of stock],7Y[out of stock]"
"7.5[out of stock],8,8.5,9,9.5,10,10.5,11,11.5,12,13[out of stock]"
"7.5[out of stock],8,8.5,9,9.5,10,10.5,11,11.5,12,13[out of stock]"
"10 D,10.5 D,11 D,11.5 D,12 D,12.5 D[out of stock],13 D,14 D[out of stock],15 D[out of stock],18 D[out of stock],7.5 D[out of stock],8 D,8.5 D,9 D,9.5 D"
"10 D,10.5 D,11 D,11.5 D,12 D,12.5 D[out of stock],13 D,14 D[out of stock],15 D[out of stock],18 D[out of stock],7.5 D[out of stock],8 D,8.5 D,9 D,9.5 D"
"Wmns US 7 / UK 4.5 / EUR 38 / ...,Wmns US 7.5 / UK 5 / EUR 38.5 ...,Wmns US 8 / UK 5.5 / EUR 39 / ...,Wmns US 8.5 / UK 6 / EUR 40 / ...,Wmns US 9 / UK 6.5 / EUR 40.5 ...[out of stock]"
"Wmns US 7 / UK 4.5 / EUR 38 / ...,Wmns US 7.5 / UK 5 / EUR 38.5 ...,Wmns US 8 / UK 5.5 / EUR 39 / ...,Wmns US 8.5 / UK 6 / EUR 40 / ...,Wmns US 9 / UK 6.5 / EUR 40.5 ...[out of stock]"
"10[out of stock],11.5"
"10[out of stock],11.5"
"10[out of stock],11.5"
"10[out of stock],11.5"
"US 8.5,US 9.5[out of stock]"
"US 8.5,US 9.5[out of stock]"
"8,8 (No Lid on Box),8.5 (No Lid on Box),9 (No Lid on Box),9.5,9.5 (No Lid on Box),10 (No Lid on Box),10.5[out of stock],11 (No Lid on Box),11.5[out of stock],12[out of stock],13[out of stock]"
"8,8 (No Lid on Box),8.5 (No Lid on Box),9 (No Lid on Box),9.5,9.5 (No Lid on Box),10 (No Lid on Box),10.5[out of stock],11 (No Lid on Box),11.5[out of stock],12[out of stock],13[out of stock]"
"8,8 (No Lid on Box),8.5 (No Lid on Box),9 (No Lid on Box),9.5,9.5 (No Lid on Box),10 (No Lid on Box),10.5[out of stock],11 (No Lid on Box),11.5[out of stock],12[out of stock],13[out of stock]"
"8,8 (No Lid on Box),8.5 (No Lid on Box),9 (No Lid on Box),9.5,9.5 (No Lid on Box),10 (No Lid on Box),10.5[out of stock],11 (No Lid on Box),11.5[out of stock],12[out of stock],13[out of stock]"
"7.5[out of stock],8,9.5[out of stock],10.5[out of stock],12[out of stock],14[out of stock]"
"7.5[out of stock],8,9.5[out of stock],10.5[out of stock],12[out of stock],14[out of stock]"
"8,8.5,9,9.5,10,10.5,11,11.5[out of stock],12,13"
"8,8.5,9,9.5,10,10.5,11,11.5[out of stock],12,13"
"US 8.5 = UK 7.5 = EU 42 = 26.5...,US 9 = UK 8 = EU 42.5 = 27 CM,US 9.5 = UK 8.5 = EU 43 = 27.5...,US 10 = UK 9 = EU 44 = 28 CM,US 10.5 = UK 9.5 = EU 44.5 = 2...,US 11.5 = UK 10.5 = EU 45.5 = ...[out of stock]"
"US 8.5 = UK 7.5 = EU 42 = 26.5...,US 9 = UK 8 = EU 42.5 = 27 CM,US 9.5 = UK 8.5 = EU 43 = 27.5...,US 10 = UK 9 = EU 44 = 28 CM,US 10.5 = UK 9.5 = EU 44.5 = 2...,US 11.5 = UK 10.5 = EU 45.5 = ...[out of stock]"
"US 5.5[out of stock],US 6[out of stock],US 6.5[out of stock],US 7,US 7.5,US 8,US 8.5,US 9,US 9.5,US 10[out of stock],US 11[out of stock]"
"US 5.5[out of stock],US 6[out of stock],US 6.5[out of stock],US 7,US 7.5,US 8,US 8.5,US 9,US 9.5,US 10[out of stock],US 11[out of stock]"
"US 5.5[out of stock],US 6[out of stock],US 6.5[out of stock],US 7,US 7.5,US 8,US 8.5,US 9,US 9.5,US 10[out of stock],US 11[out of stock]"
"US 5.5[out of stock],US 6[out of stock],US 6.5[out of stock],US 7,US 7.5,US 8,US 8.5,US 9,US 9.5,US 10[out of stock],US 11[out of stock]"
"US 10 = UK 9 = EURO 44 = BR 42,US 10.5 = UK 9.5 = EURO 44.5 =...[out of stock],US 11 = UK 10 = EURO 45 = BR 4...[out of stock],US 11.5 = UK 10.5 = EURO 45.5 ...,US 12 = UK 11 = EURO 46 = BR 4...[out of stock]"
"US 10 = UK 9 = EURO 44 = BR 42,US 10.5 = UK 9.5 = EURO 44.5 =...[out of stock],US 11 = UK 10 = EURO 45 = BR 4...[out of stock],US 11.5 = UK 10.5 = EURO 45.5 ...,US 12 = UK 11 = EURO 46 = BR 4...[out of stock]"
"US 8,US 9[out of stock],US 9.5[out of stock],US 7"
"US 8,US 9[out of stock],US 9.5[out of stock],US 7"
"US 8,US 9[out of stock],US 9.5[out of stock],US 7"
"US 8,US 9[out of stock],US 9.5[out of stock],US 7"
"US 8,US 8.5[out of stock]"
"US 8,US 8.5[out of stock]"
"15[out of stock],8[out of stock],8.5[out of stock],9[out of stock],9.5[out of stock],10,10.5,11,11.5,12[out of stock],13[out of stock],14[out of stock]"
"15[out of stock],8[out of stock],8.5[out of stock],9[out of stock],9.5[out of stock],10,10.5,11,11.5,12[out of stock],13[out of stock],14[out of stock]"
"8,8.5,9,10,11[out of stock]"
"8,8.5,9,10,11[out of stock]"
"US M 4.0=UK 3.5=EU 36.0=220mm[out of stock],US M 4.5=UK 4.0=EU 36.5=225mm[out of stock],US M 5.0=UK 4.5=EU 37.5=230mm[out of stock],US M 5.5=UK 5.0=EU 38.0=235mm[out of stock],US M 6.0=UK 5.5=EU 38.5=240mm[out of stock],US M 6.5=UK 6.0=EU 39.0=245mm[out of stock],US M 7.0=UK 6.0=EU 40.0=250mm,US M 7.5=UK 6.5=EU 40.5=255mm,US M 8.0=UK 7.0=EU 41.0=260mm,US M 8.5=UK 7.5=EU 42.0=265mm,US M 9.0=UK 8.0=EU 42.5=270mm,US M 9.5=UK 8.5=EU 43.0=275mm,US M 10.0=UK 9.0=EU 44.0=280mm,US M 10.5=UK 9.5=EU 44.5=285mm[out of stock],US M 11.0=UK 10.0=EU 45.0=290m...,US M 11.5=UK 10.5=EU 45.5=295m...[out of stock],US M 12.0=UK 11.0=EU 46.0=300m...[out of stock],US M 12.5=UK 11.5=EU 47.0=305m...[out of stock],US M 13.0=UK 12.0=EU 47.5=310m...[out of stock],US M 13.5=UK 12.5=EU 48.0=315m...[out of stock],US M 14.0=UK 13.0=EU 48.5=320m...[out of stock]"
"US M 4.0=UK 3.5=EU 36.0=220mm[out of stock],US M 4.5=UK 4.0=EU 36.5=225mm[out of stock],US M 5.0=UK 4.5=EU 37.5=230mm[out of stock],US M 5.5=UK 5.0=EU 38.0=235mm[out of stock],US M 6.0=UK 5.5=EU 38.5=240mm[out of stock],US M 6.5=UK 6.0=EU 39.0=245mm[out of stock],US M 7.0=UK 6.0=EU 40.0=250mm,US M 7.5=UK 6.5=EU 40.5=255mm,US M 8.0=UK 7.0=EU 41.0=260mm,US M 8.5=UK 7.5=EU 42.0=265mm,US M 9.0=UK 8.0=EU 42.5=270mm,US M 9.5=UK 8.5=EU 43.0=275mm,US M 10.0=UK 9.0=EU 44.0=280mm,US M 10.5=UK 9.5=EU 44.5=285mm[out of stock],US M 11.0=UK 10.0=EU 45.0=290m...,US M 11.5=UK 10.5=EU 45.5=295m...[out of stock],US M 12.0=UK 11.0=EU 46.0=300m...[out of stock],US M 12.5=UK 11.5=EU 47.0=305m...[out of stock],US M 13.0=UK 12.0=EU 47.5=310m...[out of stock],US M 13.5=UK 12.5=EU 48.0=315m...[out of stock],US M 14.0=UK 13.0=EU 48.5=320m...[out of stock]"
"7,10.5[out of stock],11"
"7,10.5[out of stock],11"
"8[out of stock],8.5[out of stock],9[out of stock],9.5[out of stock],10.5[out of stock],11,12[out of stock]"
"8[out of stock],8.5[out of stock],9[out of stock],9.5[out of stock],10.5[out of stock],11,12[out of stock]"
"5.5 B(M) US[out of stock],5.5 M US[out of stock],6 M US[out of stock],6.5 M US[out of stock],7 B(M) US[out of stock],7 M US,7.5 B(M) US[out of stock],7.5 M US,8 B(M) US[out of stock],8 M US[out of stock],8 B9M US[out of stock],8.5 M US[out of stock],9 B(M) US[out of stock],9 M US[out of stock],9.5 M US[out of stock]"
"5.5 B(M) US[out of stock],5.5 M US[out of stock],6 M US[out of stock],6.5 M US[out of stock],7 B(M) US[out of stock],7 M US,7.5 B(M) US[out of stock],7.5 M US,8 B(M) US[out of stock],8 M US[out of stock],8 B9M US[out of stock],8.5 M US[out of stock],9 B(M) US[out of stock],9 M US[out of stock],9.5 M US[out of stock]"
"8[out of stock],9[out of stock],10,11[out of stock],12[out of stock],13[out of stock]"
"8[out of stock],9[out of stock],10,11[out of stock],12[out of stock],13[out of stock]"
"6,6.5[out of stock],7[out of stock],7.5[out of stock],8[out of stock],8.5[out of stock],9[out of stock],9.5[out of stock],10[out of stock],10.5[out of stock],11[out of stock],11.5[out of stock],12[out of stock],13[out of stock],14[out of stock],15[out of stock]"
"6,6.5[out of stock],7[out of stock],7.5[out of stock],8[out of stock],8.5[out of stock],9[out of stock],9.5[out of stock],10[out of stock],10.5[out of stock],11[out of stock],11.5[out of stock],12[out of stock],13[out of stock],14[out of stock],15[out of stock]"
"5[out of stock],6,6.5[out of stock],7,10[out of stock]"
"5[out of stock],6,6.5[out of stock],7,10[out of stock]"
"8,8.5,9[out of stock],9.5,10,10.5"
"8,8.5,9[out of stock],9.5,10,10.5"
"6,6.5,7,8.5[out of stock],9,9.5,11[out of stock]"
"6,6.5,7,8.5[out of stock],9,9.5,11[out of stock]"
"5,5.5,6,9,9.5[out of stock],11,12,13,14,10"
"5,5.5,6,9,9.5[out of stock],11,12,13,14,10"
"8.5,9[out of stock],9.5[out of stock],10,10.5[out of stock],11,14,9 (NO LID TO BOX),9.5 (NO LID TO BOX),11 (NO LID TO BOX)"
"8.5,9[out of stock],9.5[out of stock],10,10.5[out of stock],11,14,9 (NO LID TO BOX),9.5 (NO LID TO BOX),11 (NO LID TO BOX)"
"7[out of stock],7.5,8,8.5,9[out of stock],9.5,11[out of stock],12[out of stock]"
"7[out of stock],7.5,8,8.5,9[out of stock],9.5,11[out of stock],12[out of stock]"
"S,M[out of stock],L[out of stock],XL,XXL[out of stock],3XL[out of stock]"
"S,M[out of stock],L[out of stock],XL,XXL[out of stock],3XL[out of stock]"
"8[out of stock],8.5[out of stock],9[out of stock],9.5[out of stock],10[out of stock],10.5[out of stock],11,12,13[out of stock]"
"8[out of stock],8.5[out of stock],9[out of stock],9.5[out of stock],10[out of stock],10.5[out of stock],11,12,13[out of stock]"
"US 8[out of stock],US 8.5,US 9,US 9.5"
"US 8[out of stock],US 8.5,US 9,US 9.5"
"M,L[out of stock],XL[out of stock]"
"M,L[out of stock],XL[out of stock]"
"6,6.5[out of stock],7,7.5,8[out of stock],8.5,9[out of stock],9.5,10"
"6,6.5[out of stock],7,7.5,8[out of stock],8.5,9[out of stock],9.5,10"
"8[out of stock],8.5[out of stock],9,9.5,10.5,11[out of stock],12,14[out of stock]"
"8[out of stock],8.5[out of stock],9,9.5,10.5,11[out of stock],12,14[out of stock]"
"8[out of stock],10[out of stock],11[out of stock],11.5,14"
"8[out of stock],10[out of stock],11[out of stock],11.5,14"
"8,9[out of stock],10,10.5,11,11.5,12"
"8,9[out of stock],10,10.5,11,11.5,12"
"Wmns US 6.5 / UK 4 / EUR 37.5 ...[out of stock],Wmns US 7 / UK 4.5 / EUR 38 / ...,Wmns US 7.5 / UK 5 / EUR 38.5 ...,Wmns US 8 / UK 5.5 / EUR 39 / ...,Wmns US 8.5 / UK 6 / EUR 40 / ...,Wmns US 9 / UK 6.5 / EUR 40.5 ...,Wmns US 9.5 / UK 7 / EUR 41 / ...,Wmns US 10 / UK 7.5 / EUR 42 /...,Wmns US 10.5 / UK 8 / EUR 42.5...,Wmns US 12 / UK 9.5 / EUR 44.5..."
"Wmns US 6.5 / UK 4 / EUR 37.5 ...[out of stock],Wmns US 7 / UK 4.5 / EUR 38 / ...,Wmns US 7.5 / UK 5 / EUR 38.5 ...,Wmns US 8 / UK 5.5 / EUR 39 / ...,Wmns US 8.5 / UK 6 / EUR 40 / ...,Wmns US 9 / UK 6.5 / EUR 40.5 ...,Wmns US 9.5 / UK 7 / EUR 41 / ...,Wmns US 10 / UK 7.5 / EUR 42 /...,Wmns US 10.5 / UK 8 / EUR 42.5...,Wmns US 12 / UK 9.5 / EUR 44.5..."
"6[out of stock],6.5,7,7.5,8,8.5[out of stock],9[out of stock],9.5,10,11[out of stock]"
"6[out of stock],6.5,7,7.5,8,8.5[out of stock],9[out of stock],9.5,10,11[out of stock]"
"10 D(M) US,10.5 D(M) US,11 D(M) US,11.5 D(M) US,12 D(M) US,13 D(M) US,14 D(M) US[out of stock],8.5 D(M) US,9 D(M) US,9.5 D(M) US"
"10 D(M) US,10.5 D(M) US,11 D(M) US,11.5 D(M) US,12 D(M) US,13 D(M) US,14 D(M) US[out of stock],8.5 D(M) US,9 D(M) US,9.5 D(M) US"
"MEN 8[out of stock],MEN 9[out of stock],MEN 9.5[out of stock],MEN 10[out of stock],MEN 10.5[out of stock],MEN 11[out of stock],MEN 12[out of stock],Sold Out,Medium (D, M),Synthetic"
"MEN 8[out of stock],MEN 9[out of stock],MEN 9.5[out of stock],MEN 10[out of stock],MEN 10.5[out of stock],MEN 11[out of stock],MEN 12[out of stock],Sold Out,Medium (D, M),Synthetic"
"8[out of stock],8.5[out of stock],9[out of stock],10,10.5[out of stock],11,11.5,12[out of stock],13[out of stock]"
"8[out of stock],8.5[out of stock],9[out of stock],10,10.5[out of stock],11,11.5,12[out of stock],13[out of stock]"
"Size XS (899370-010),Size S (899370-010),Size M (899370-010),Size L (899370-010)[out of stock],Size XL (899370-010)[out of stock]"
"Size XS (899370-010),Size S (899370-010),Size M (899370-010),Size L (899370-010)[out of stock],Size XL (899370-010)[out of stock]"
"US 6.5[out of stock],US 7[out of stock],US 7.5[out of stock],US 8[out of stock],US 8.5,US 9[out of stock],US 9.5[out of stock],US 10[out of stock]"
"US 6.5[out of stock],US 7[out of stock],US 7.5[out of stock],US 8[out of stock],US 8.5,US 9[out of stock],US 9.5[out of stock],US 10[out of stock]"
"8,8.5,9,9.5,10,10.5,11,11.5,12,13[out of stock]"
"8,8.5,9,9.5,10,10.5,11,11.5,12,13[out of stock]"
"8[out of stock],8.5[out of stock],9,9 (Damaged Box),9.5[out of stock],10[out of stock],10.5[out of stock],11[out of stock],11.5,12[out of stock]"
"8[out of stock],8.5[out of stock],9,9 (Damaged Box),9.5[out of stock],10[out of stock],10.5[out of stock],11[out of stock],11.5,12[out of stock]"
"6 M US,6.5 M US,7.5 M US[out of stock],Armory Blue/Armory Navy/Cirrus...,Blue Recall/Volt Glow/Obsidian[out of stock]"
"6 M US,6.5 M US,7.5 M US[out of stock],Armory Blue/Armory Navy/Cirrus...,Blue Recall/Volt Glow/Obsidian[out of stock]"
"9.5[out of stock],10.5"
"9.5[out of stock],10.5"
"9.5,10,10.5[out of stock],11,11.5,12[out of stock],13"
"9.5,10,10.5[out of stock],11,11.5,12[out of stock],13"
"8[out of stock],8.5[out of stock],9[out of stock],9.5[out of stock],10[out of stock],11.5[out of stock],12,13[out of stock]"
"8[out of stock],8.5[out of stock],9[out of stock],9.5[out of stock],10[out of stock],11.5[out of stock],12,13[out of stock]"
"S,L[out of stock],XL[out of stock],2XL[out of stock]"
"S,L[out of stock],XL[out of stock],2XL[out of stock]"
"S,L[out of stock],XL[out of stock],2XL[out of stock]"
"7.5,8,8.5,9,9.5,10,10.5,11,11.5[out of stock]"
"7.5,8,8.5,9,9.5,10,10.5,11,11.5[out of stock]"
"7.5,8,8.5,9,9.5,10,10.5,11,11.5[out of stock]"
"8[out of stock],8.5[out of stock],9.5,10,10.5,11[out of stock],13[out of stock]"
"8[out of stock],8.5[out of stock],9.5,10,10.5,11[out of stock],13[out of stock]"
"8[out of stock],8.5[out of stock],9.5,10,10.5,11[out of stock],13[out of stock]"
"8[out of stock],10[out of stock],11[out of stock],11.5,14"
"8[out of stock],10[out of stock],11[out of stock],11.5,14"
"8[out of stock],10[out of stock],11[out of stock],11.5,14"
"7,7.5[out of stock],8,8.5,9.5,11[out of stock],11.5,12,12.5,13"
"7,7.5[out of stock],8,8.5,9.5,11[out of stock],11.5,12,12.5,13"
"7,7.5[out of stock],8,8.5,9.5,11[out of stock],11.5,12,12.5,13"
"US 8.5 = UK 7.5 = EURO 42 = BR...,US 9 = UK 8 = EURO 42.5 = BR 4...[out of stock],US 9.5 = UK 8.5 = EURO 43 = BR...,US 10 = UK 9 = EURO 44 = BR 42,US 10.5 = UK 9.5 = EURO 44.5 =...,US 11 = UK 10 = EURO 45 = BR 4...,US 12 = UK 11 = EURO 46 = BR 4...,US 13 = UK 12 = EURO 47 = BR 4..."
"US 8.5 = UK 7.5 = EURO 42 = BR...,US 9 = UK 8 = EURO 42.5 = BR 4...[out of stock],US 9.5 = UK 8.5 = EURO 43 = BR...,US 10 = UK 9 = EURO 44 = BR 42,US 10.5 = UK 9.5 = EURO 44.5 =...,US 11 = UK 10 = EURO 45 = BR 4...,US 12 = UK 11 = EURO 46 = BR 4...,US 13 = UK 12 = EURO 47 = BR 4..."
"US 8.5 = UK 7.5 = EURO 42 = BR...,US 9 = UK 8 = EURO 42.5 = BR 4...[out of stock],US 9.5 = UK 8.5 = EURO 43 = BR...,US 10 = UK 9 = EURO 44 = BR 42,US 10.5 = UK 9.5 = EURO 44.5 =...,US 11 = UK 10 = EURO 45 = BR 4...,US 12 = UK 11 = EURO 46 = BR 4...,US 13 = UK 12 = EURO 47 = BR 4..."
"US 6,US 6.5[out of stock],US 7[out of stock],US 7.5,US 8[out of stock],US 8.5,US 9"
"US 6,US 6.5[out of stock],US 7[out of stock],US 7.5,US 8[out of stock],US 8.5,US 9"
"US 6,US 6.5[out of stock],US 7[out of stock],US 7.5,US 8[out of stock],US 8.5,US 9"
"US 7.5 = UK 6.5 = EUR 40.5[out of stock],US 8.5 = UK 7.5 = EUR 42[out of stock],US 9.5 = UK 8.5 = EUR 43,US 11.5 = UK 10.5 = EUR 45.5,US 12 = UK 11 = EUR 46[out of stock]"
"US 7.5 = UK 6.5 = EUR 40.5[out of stock],US 8.5 = UK 7.5 = EUR 42[out of stock],US 9.5 = UK 8.5 = EUR 43,US 11.5 = UK 10.5 = EUR 45.5,US 12 = UK 11 = EUR 46[out of stock]"
"US 7.5 = UK 6.5 = EUR 40.5[out of stock],US 8.5 = UK 7.5 = EUR 42[out of stock],US 9.5 = UK 8.5 = EUR 43,US 11.5 = UK 10.5 = EUR 45.5,US 12 = UK 11 = EUR 46[out of stock]"
"5[out of stock],5.5[out of stock],6,6.5[out of stock],7,7.5,8[out of stock],8.5[out of stock],9[out of stock],9.5[out of stock],10,10.5[out of stock],11,11.5[out of stock],12[out of stock]"
"5[out of stock],5.5[out of stock],6,6.5[out of stock],7,7.5,8[out of stock],8.5[out of stock],9[out of stock],9.5[out of stock],10,10.5[out of stock],11,11.5[out of stock],12[out of stock]"
"5[out of stock],5.5[out of stock],6,6.5[out of stock],7,7.5,8[out of stock],8.5[out of stock],9[out of stock],9.5[out of stock],10,10.5[out of stock],11,11.5[out of stock],12[out of stock]"
"US 6,US 6.5[out of stock],US 7,US 7.5,US 8"
"US 6,US 6.5[out of stock],US 7,US 7.5,US 8"
"US 6,US 6.5[out of stock],US 7,US 7.5,US 8"
"UK-6, EUR-40, US-7[out of stock],UK-6.5, EUR-40.5, US-7.5[out of stock],UK-7, EUR-41, US-8,UK-7.5, EUR-42, US-8.5,UK-8, EUR-42.5, US-9,UK-8.5, EUR-43, US-9.5,UK-9, EUR-44, US-10,UK-9.5, EUR-44.5, US-10.5,UK-10, EUR-45, US-11,UK-11, EUR-46, US-12[out of stock],UK-12, EUR-47.5, US-13[out of stock]"
"UK-6, EUR-40, US-7[out of stock],UK-6.5, EUR-40.5, US-7.5[out of stock],UK-7, EUR-41, US-8,UK-7.5, EUR-42, US-8.5,UK-8, EUR-42.5, US-9,UK-8.5, EUR-43, US-9.5,UK-9, EUR-44, US-10,UK-9.5, EUR-44.5, US-10.5,UK-10, EUR-45, US-11,UK-11, EUR-46, US-12[out of stock],UK-12, EUR-47.5, US-13[out of stock]"
"UK-6, EUR-40, US-7[out of stock],UK-6.5, EUR-40.5, US-7.5[out of stock],UK-7, EUR-41, US-8,UK-7.5, EUR-42, US-8.5,UK-8, EUR-42.5, US-9,UK-8.5, EUR-43, US-9.5,UK-9, EUR-44, US-10,UK-9.5, EUR-44.5, US-10.5,UK-10, EUR-45, US-11,UK-11, EUR-46, US-12[out of stock],UK-12, EUR-47.5, US-13[out of stock]"
"10.5[out of stock],11,12[out of stock]"
"10.5[out of stock],11,12[out of stock]"
"10.5[out of stock],11,12[out of stock]"
"8.5[out of stock],9[out of stock],9.5[out of stock],10[out of stock],10.5[out of stock],11[out of stock],11.5,12[out of stock],13[out of stock]"
"8.5[out of stock],9[out of stock],9.5[out of stock],10[out of stock],10.5[out of stock],11[out of stock],11.5,12[out of stock],13[out of stock]"
"8.5[out of stock],9[out of stock],9.5[out of stock],10[out of stock],10.5[out of stock],11[out of stock],11.5,12[out of stock],13[out of stock]"
"7[out of stock],7.5[out of stock],8[out of stock],8.5[out of stock],9[out of stock],9.5,10[out of stock],10.5[out of stock],11[out of stock],11.5[out of stock],12[out of stock],12.5,13,13.5[out of stock],14[out of stock],15[out of stock],16[out of stock]"
"7[out of stock],7.5[out of stock],8[out of stock],8.5[out of stock],9[out of stock],9.5,10[out of stock],10.5[out of stock],11[out of stock],11.5[out of stock],12[out of stock],12.5,13,13.5[out of stock],14[out of stock],15[out of stock],16[out of stock]"
"7[out of stock],7.5[out of stock],8[out of stock],8.5[out of stock],9[out of stock],9.5,10[out of stock],10.5[out of stock],11[out of stock],11.5[out of stock],12[out of stock],12.5,13,13.5[out of stock],14[out of stock],15[out of stock],16[out of stock]"
"M[out of stock],L[out of stock],XL"
"M[out of stock],L[out of stock],XL"
"M[out of stock],L[out of stock],XL"
"US 6.5,US 7[out of stock],US 7.5,US 8,US 8.5,US 9,US 9.5,US 10,US 6"
"US 6.5,US 7[out of stock],US 7.5,US 8,US 8.5,US 9,US 9.5,US 10,US 6"
"US 6.5,US 7[out of stock],US 7.5,US 8,US 8.5,US 9,US 9.5,US 10,US 6"
"US 8 / UK 7 / EUR 41 / 26CM[out of stock],US 8.5 / UK 7.5 / EUR 42 / 26....,US 9 / UK 8 / EUR 42.5 / 27CM"
"US 8 / UK 7 / EUR 41 / 26CM[out of stock],US 8.5 / UK 7.5 / EUR 42 / 26....,US 9 / UK 8 / EUR 42.5 / 27CM"
"US 8 / UK 7 / EUR 41 / 26CM[out of stock],US 8.5 / UK 7.5 / EUR 42 / 26....,US 9 / UK 8 / EUR 42.5 / 27CM"
"7 D(M) US[out of stock],7 M US,7[out of stock],7.5 D(M) US[out of stock],7.5 M US[out of stock],7.5 UK[out of stock],8 D(M) US[out of stock],8 M US[out of stock],8 UK[out of stock],8.5 D(M) US[out of stock],8.5 M US[out of stock],9 D(M) US[out of stock],9 M US[out of stock],9 UK[out of stock],9.5 D(M) US[out of stock],9.5 M US[out of stock],10 D(M) US[out of stock],10 M US[out of stock],10.5 D(M) US[out of stock],10.5 M US[out of stock],11 D(M) US[out of stock],11 M US[out of stock],11 UK[out of stock],11.5 D(M) US[out of stock],11.5 M US[out of stock],12 D(M) US[out of stock],12 M US[out of stock],13 D(M) US,13 M US[out of stock],14 D(M) US[out of stock],14 M US,15 D(M) US[out of stock],15 M US[out of stock]"
"7 D(M) US[out of stock],7 M US,7[out of stock],7.5 D(M) US[out of stock],7.5 M US[out of stock],7.5 UK[out of stock],8 D(M) US[out of stock],8 M US[out of stock],8 UK[out of stock],8.5 D(M) US[out of stock],8.5 M US[out of stock],9 D(M) US[out of stock],9 M US[out of stock],9 UK[out of stock],9.5 D(M) US[out of stock],9.5 M US[out of stock],10 D(M) US[out of stock],10 M US[out of stock],10.5 D(M) US[out of stock],10.5 M US[out of stock],11 D(M) US[out of stock],11 M US[out of stock],11 UK[out of stock],11.5 D(M) US[out of stock],11.5 M US[out of stock],12 D(M) US[out of stock],12 M US[out of stock],13 D(M) US,13 M US[out of stock],14 D(M) US[out of stock],14 M US,15 D(M) US[out of stock],15 M US[out of stock]"
"7 D(M) US[out of stock],7 M US,7[out of stock],7.5 D(M) US[out of stock],7.5 M US[out of stock],7.5 UK[out of stock],8 D(M) US[out of stock],8 M US[out of stock],8 UK[out of stock],8.5 D(M) US[out of stock],8.5 M US[out of stock],9 D(M) US[out of stock],9 M US[out of stock],9 UK[out of stock],9.5 D(M) US[out of stock],9.5 M US[out of stock],10 D(M) US[out of stock],10 M US[out of stock],10.5 D(M) US[out of stock],10.5 M US[out of stock],11 D(M) US[out of stock],11 M US[out of stock],11 UK[out of stock],11.5 D(M) US[out of stock],11.5 M US[out of stock],12 D(M) US[out of stock],12 M US[out of stock],13 D(M) US,13 M US[out of stock],14 D(M) US[out of stock],14 M US,15 D(M) US[out of stock],15 M US[out of stock]"
"10 D - Medium,10.5 D - Medium,11 D - Medium[out of stock],11.5 D - Medium,12 D - Medium,12.5 D - Medium[out of stock],13 D - Medium[out of stock],14 D - Medium[out of stock],15 D - Medium[out of stock],6[out of stock],6.5[out of stock],7[out of stock],7.5 D - Medium[out of stock],8 D - Medium[out of stock],8.5 D - Medium[out of stock],9 D - Medium[out of stock],9.5 D - Medium[out of stock],Gym Red/Metallic Silver/Photo ...[out of stock],White/Metallic Silver/Photo Bl..."
"10 D - Medium,10.5 D - Medium,11 D - Medium[out of stock],11.5 D - Medium,12 D - Medium,12.5 D - Medium[out of stock],13 D - Medium[out of stock],14 D - Medium[out of stock],15 D - Medium[out of stock],6[out of stock],6.5[out of stock],7[out of stock],7.5 D - Medium[out of stock],8 D - Medium[out of stock],8.5 D - Medium[out of stock],9 D - Medium[out of stock],9.5 D - Medium[out of stock],Gym Red/Metallic Silver/Photo ...[out of stock],White/Metallic Silver/Photo Bl..."
"10 D - Medium,10.5 D - Medium,11 D - Medium[out of stock],11.5 D - Medium,12 D - Medium,12.5 D - Medium[out of stock],13 D - Medium[out of stock],14 D - Medium[out of stock],15 D - Medium[out of stock],6[out of stock],6.5[out of stock],7[out of stock],7.5 D - Medium[out of stock],8 D - Medium[out of stock],8.5 D - Medium[out of stock],9 D - Medium[out of stock],9.5 D - Medium[out of stock],Gym Red/Metallic Silver/Photo ...[out of stock],White/Metallic Silver/Photo Bl..."
"9,9.5,10,8,8.5,10.5,11,11.5,12,13[out of stock],15"
"9,9.5,10,8,8.5,10.5,11,11.5,12,13[out of stock],15"
"9,9.5,10,8,8.5,10.5,11,11.5,12,13[out of stock],15"
"8,8.5,9,9.5,10,10.5,11[out of stock],11.5,12,13[out of stock]"
"8,8.5,9,9.5,10,10.5,11[out of stock],11.5,12,13[out of stock]"
"8,8.5,9,9.5,10,10.5,11[out of stock],11.5,12,13[out of stock]"
"6,6.5,7[out of stock],7.5,8,8.5,9,9.5,10[out of stock]"
"6,6.5,7[out of stock],7.5,8,8.5,9,9.5,10[out of stock]"
"6,6.5,7[out of stock],7.5,8,8.5,9,9.5,10[out of stock]"
"10 D - Medium,10.5 D - Medium[out of stock],11 D - Medium[out of stock],11.5 D - Medium,12 D - Medium[out of stock],12.5 D - Medium[out of stock],13 D - Medium[out of stock],14 D - Medium[out of stock],15 D - Medium[out of stock],6.5 D - Medium[out of stock],7 D - Medium[out of stock],7.5 D - Medium[out of stock],8 D - Medium[out of stock],8.5 D - Medium[out of stock],9 D - Medium[out of stock],9.5 D - Medium"
"10 D - Medium,10.5 D - Medium[out of stock],11 D - Medium[out of stock],11.5 D - Medium,12 D - Medium[out of stock],12.5 D - Medium[out of stock],13 D - Medium[out of stock],14 D - Medium[out of stock],15 D - Medium[out of stock],6.5 D - Medium[out of stock],7 D - Medium[out of stock],7.5 D - Medium[out of stock],8 D - Medium[out of stock],8.5 D - Medium[out of stock],9 D - Medium[out of stock],9.5 D - Medium"
"10 D - Medium,10.5 D - Medium[out of stock],11 D - Medium[out of stock],11.5 D - Medium,12 D - Medium[out of stock],12.5 D - Medium[out of stock],13 D - Medium[out of stock],14 D - Medium[out of stock],15 D - Medium[out of stock],6.5 D - Medium[out of stock],7 D - Medium[out of stock],7.5 D - Medium[out of stock],8 D - Medium[out of stock],8.5 D - Medium[out of stock],9 D - Medium[out of stock],9.5 D - Medium"
"10 (NO LID TO BOX)[out of stock],10.5 (NO LID TO BOX)[out of stock],11 (NO LID TO BOX)[out of stock],11.5 (NO LID TO BOX),12 (NO LID TO BOX)[out of stock]"
"10 (NO LID TO BOX)[out of stock],10.5 (NO LID TO BOX)[out of stock],11 (NO LID TO BOX)[out of stock],11.5 (NO LID TO BOX),12 (NO LID TO BOX)[out of stock]"
"10 (NO LID TO BOX)[out of stock],10.5 (NO LID TO BOX)[out of stock],11 (NO LID TO BOX)[out of stock],11.5 (NO LID TO BOX),12 (NO LID TO BOX)[out of stock]"
"US 5[out of stock],US 5.5[out of stock],US 6,US 6.5[out of stock],US 7[out of stock]"
"US 5[out of stock],US 5.5[out of stock],US 6,US 6.5[out of stock],US 7[out of stock]"
"US 5[out of stock],US 5.5[out of stock],US 6,US 6.5[out of stock],US 7[out of stock]"
"8[out of stock],8.5[out of stock],9,9.5[out of stock],10[out of stock],10.5[out of stock],11,11.5[out of stock],12[out of stock],13"
"8[out of stock],8.5[out of stock],9,9.5[out of stock],10[out of stock],10.5[out of stock],11,11.5[out of stock],12[out of stock],13"
"8[out of stock],8.5[out of stock],9,9.5[out of stock],10[out of stock],10.5[out of stock],11,11.5[out of stock],12[out of stock],13"
"8,8.5,9,9.5,10,11,12[out of stock]"
"8,8.5,9,9.5,10,11,12[out of stock]"
"8,8.5,9,9.5,10,11,12[out of stock]"
"US 6,US 6.5,US 8,US 8.5,US 9,US 10,US 10.5[out of stock]"
"US 6,US 6.5,US 8,US 8.5,US 9,US 10,US 10.5[out of stock]"
"US 6,US 6.5,US 8,US 8.5,US 9,US 10,US 10.5[out of stock]"
"US 6,US 6.5,US 8,US 8.5,US 9,US 10,US 10.5[out of stock]"
"US 6,US 6.5,US 8,US 8.5,US 9,US 10,US 10.5[out of stock]"
"US 6,US 6.5,US 8,US 8.5,US 9,US 10,US 10.5[out of stock]"
"001,7.0[out of stock],7.5[out of stock],8.0[out of stock],8.5[out of stock],9.0,9.5[out of stock],10.0[out of stock],10.5[out of stock],11.0[out of stock],11.5,12.0[out of stock],13.0[out of stock]"
"001,7.0[out of stock],7.5[out of stock],8.0[out of stock],8.5[out of stock],9.0,9.5[out of stock],10.0[out of stock],10.5[out of stock],11.0[out of stock],11.5,12.0[out of stock],13.0[out of stock]"
"001,7.0[out of stock],7.5[out of stock],8.0[out of stock],8.5[out of stock],9.0,9.5[out of stock],10.0[out of stock],10.5[out of stock],11.0[out of stock],11.5,12.0[out of stock],13.0[out of stock]"
"001,7.0[out of stock],7.5[out of stock],8.0[out of stock],8.5[out of stock],9.0,9.5[out of stock],10.0[out of stock],10.5[out of stock],11.0[out of stock],11.5,12.0[out of stock],13.0[out of stock]"
"001,7.0[out of stock],7.5[out of stock],8.0[out of stock],8.5[out of stock],9.0,9.5[out of stock],10.0[out of stock],10.5[out of stock],11.0[out of stock],11.5,12.0[out of stock],13.0[out of stock]"
"001,7.0[out of stock],7.5[out of stock],8.0[out of stock],8.5[out of stock],9.0,9.5[out of stock],10.0[out of stock],10.5[out of stock],11.0[out of stock],11.5,12.0[out of stock],13.0[out of stock]"
"001,7.0[out of stock],7.5[out of stock],8.0[out of stock],8.5[out of stock],9.0,9.5[out of stock],10.0[out of stock],10.5[out of stock],11.0[out of stock],11.5,12.0[out of stock],13.0[out of stock]"
"001,7.0[out of stock],7.5[out of stock],8.0[out of stock],8.5[out of stock],9.0,9.5[out of stock],10.0[out of stock],10.5[out of stock],11.0[out of stock],11.5,12.0[out of stock],13.0[out of stock]"
"10 D - Medium[out of stock],10.5 D - Medium[out of stock],11[out of stock],11.5 D - Medium[out of stock],12 D - Medium[out of stock],12.5 D - Medium,13 D - Medium,14 D - Medium,15[out of stock],6.5 D - Medium[out of stock],7 D - Medium[out of stock],7.5[out of stock],8[out of stock],8.5[out of stock],9 D - Medium[out of stock],9.5 D - Medium"
"10 D - Medium[out of stock],10.5 D - Medium[out of stock],11[out of stock],11.5 D - Medium[out of stock],12 D - Medium[out of stock],12.5 D - Medium,13 D - Medium,14 D - Medium,15[out of stock],6.5 D - Medium[out of stock],7 D - Medium[out of stock],7.5[out of stock],8[out of stock],8.5[out of stock],9 D - Medium[out of stock],9.5 D - Medium"
"10 D - Medium[out of stock],10.5 D - Medium[out of stock],11[out of stock],11.5 D - Medium[out of stock],12 D - Medium[out of stock],12.5 D - Medium,13 D - Medium,14 D - Medium,15[out of stock],6.5 D - Medium[out of stock],7 D - Medium[out of stock],7.5[out of stock],8[out of stock],8.5[out of stock],9 D - Medium[out of stock],9.5 D - Medium"
"10 D - Medium[out of stock],10.5 D - Medium[out of stock],11[out of stock],11.5 D - Medium[out of stock],12 D - Medium[out of stock],12.5 D - Medium,13 D - Medium,14 D - Medium,15[out of stock],6.5 D - Medium[out of stock],7 D - Medium[out of stock],7.5[out of stock],8[out of stock],8.5[out of stock],9 D - Medium[out of stock],9.5 D - Medium"
"7.5[out of stock],8,8.5,9,9.5,10,10.5,11,11.5,12,13[out of stock]"
"7.5[out of stock],8,8.5,9,9.5,10,10.5,11,11.5,12,13[out of stock]"
"7.5[out of stock],8,8.5,9,9.5,10,10.5,11,11.5,12,13[out of stock]"
"7.5[out of stock],8,8.5,9,9.5,10,10.5,11,11.5,12,13[out of stock]"
"11,13[out of stock]"
"11,13[out of stock]"
"11,13[out of stock]"
"11,13[out of stock]"
"11,13[out of stock]"
